%YAML 1.1
%TAG !u! tag:unity3d.com,2011:
--- !u!21 &2100000
Material:
  serializedVersion: 8
  m_ObjectHideFlags: 0
  m_CorrespondingSourceObject: {fileID: 0}
  m_PrefabInstance: {fileID: 0}
  m_PrefabAsset: {fileID: 0}
  m_Name: Shader Graphs_Tornado
  m_Shader: {fileID: -6465566751694194690, guid: 146edc6e866fd4d47b245712fd7ba82d,
    type: 3}
  m_Parent: {fileID: 0}
  m_ModifiedSerializedProperties: 0
  m_ValidKeywords: []
  m_InvalidKeywords: []
  m_LightmapFlags: 4
  m_EnableInstancingVariants: 0
  m_DoubleSidedGI: 0
  m_CustomRenderQueue: -1
  stringTagMap: {}
  disabledShaderPasses: []
  m_LockedProperties: 
  m_SavedProperties:
    serializedVersion: 3
    m_TexEnvs:
    - _DisplaceTexture:
        m_Texture: {fileID: 2800000, guid: e3f6f42b871f26147931f5e3f04078a2, type: 3}
        m_Scale: {x: 1, y: 1}
        m_Offset: {x: 0, y: 0}
    - _MainTex:
        m_Texture: {fileID: 2800000, guid: e76d77593ab42b94d9c94e9c1e6bd179, type: 3}
        m_Scale: {x: 1, y: 1}
        m_Offset: {x: 0, y: 0}
    - _SampleTexture2DLOD_ab6eca953f004ecd81255bc758a46be2_Texture_1:
        m_Texture: {fileID: 2800000, guid: 2cbb659bd00bd7a4b8bc696dc6342b8c, type: 3}
        m_Scale: {x: 1, y: 1}
        m_Offset: {x: 0, y: 0}
    - unity_Lightmaps:
        m_Texture: {fileID: 0}
        m_Scale: {x: 1, y: 1}
        m_Offset: {x: 0, y: 0}
    - unity_LightmapsInd:
        m_Texture: {fileID: 0}
        m_Scale: {x: 1, y: 1}
        m_Offset: {x: 0, y: 0}
    - unity_ShadowMasks:
        m_Texture: {fileID: 0}
        m_Scale: {x: 1, y: 1}
        m_Offset: {x: 0, y: 0}
    m_Ints: []
    m_Floats:
    - Vector1_2341e4e6cd38491abb80d3a3002ef682: -0.5
    - Vector1_663221fb8fc143df9728e3d86489998d: 0.32
    - _QueueControl: 0
    - _QueueOffset: 0
    m_Colors:
    - Color_4f623fa3259a4e63837f685800e51f95: {r: 14.754423, g: 5.1756353, b: 0, a: 1}
    - Vector2_4949a836901b4e16927904178d0f0947: {r: 0.1, g: 0.1, b: 0, a: 0}
    - Vector2_a82f59f98ebc413c8fe9dcfad507bd87: {r: 3, g: 3, b: 0, a: 0}
  m_BuildTextureStacks: []
--- !u!114 &424596947474392215
MonoBehaviour:
  m_ObjectHideFlags: 11
  m_CorrespondingSourceObject: {fileID: 0}
  m_PrefabInstance: {fileID: 0}
  m_PrefabAsset: {fileID: 0}
  m_GameObject: {fileID: 0}
  m_Enabled: 1
  m_EditorHideFlags: 0
  m_Script: {fileID: 11500000, guid: d0353a89b1f911e48b9e16bdc9f2e058, type: 3}
  m_Name: 
  m_EditorClassIdentifier: 
  version: 7
