%YAML 1.1
%TAG !u! tag:unity3d.com,2011:
--- !u!1 &500079958391741425
GameObject:
  m_ObjectHideFlags: 0
  m_CorrespondingSourceObject: {fileID: 0}
  m_PrefabInstance: {fileID: 0}
  m_PrefabAsset: {fileID: 0}
  serializedVersion: 6
  m_Component:
  - component: {fileID: 500079958391834577}
  - component: {fileID: 500079958388410353}
  - component: {fileID: 500079958389540145}
  m_Layer: 0
  m_Name: Candles
  m_TagString: Untagged
  m_Icon: {fileID: 0}
  m_NavMeshLayer: 0
  m_StaticEditorFlags: 1
  m_IsActive: 1
--- !u!4 &500079958391834577
Transform:
  m_ObjectHideFlags: 0
  m_CorrespondingSourceObject: {fileID: 0}
  m_PrefabInstance: {fileID: 0}
  m_PrefabAsset: {fileID: 0}
  m_GameObject: {fileID: 500079958391741425}
  m_LocalRotation: {x: 0.000000020576387, y: 0.33710873, z: 0.000000007367746, w: 0.94146574}
  m_LocalPosition: {x: -67.21536, y: 3.1587687, z: -4.260498}
  m_LocalScale: {x: 9, y: 9, z: 9}
  m_ConstrainProportionsScale: 0
  m_Children:
  - {fileID: 2153172595256301050}
  m_Father: {fileID: 0}
  m_RootOrder: -1
  m_LocalEulerAnglesHint: {x: 0, y: 39.402, z: 0}
--- !u!33 &500079958388410353
MeshFilter:
  m_ObjectHideFlags: 0
  m_CorrespondingSourceObject: {fileID: 0}
  m_PrefabInstance: {fileID: 0}
  m_PrefabAsset: {fileID: 0}
  m_GameObject: {fileID: 500079958391741425}
  m_Mesh: {fileID: 4300000, guid: f5fae958f7859bb418cbb635f9339a23, type: 3}
--- !u!23 &500079958389540145
MeshRenderer:
  m_ObjectHideFlags: 0
  m_CorrespondingSourceObject: {fileID: 0}
  m_PrefabInstance: {fileID: 0}
  m_PrefabAsset: {fileID: 0}
  m_GameObject: {fileID: 500079958391741425}
  m_Enabled: 1
  m_CastShadows: 1
  m_ReceiveShadows: 1
  m_DynamicOccludee: 1
  m_StaticShadowCaster: 0
  m_MotionVectors: 1
  m_LightProbeUsage: 1
  m_ReflectionProbeUsage: 1
  m_RayTracingMode: 2
  m_RayTraceProcedural: 0
  m_RenderingLayerMask: 1
  m_RendererPriority: 0
  m_Materials:
  - {fileID: 2100000, guid: eb8f3d060e47b754c9a794b0e20392a6, type: 2}
  m_StaticBatchInfo:
    firstSubMesh: 0
    subMeshCount: 0
  m_StaticBatchRoot: {fileID: 0}
  m_ProbeAnchor: {fileID: 0}
  m_LightProbeVolumeOverride: {fileID: 0}
  m_ScaleInLightmap: 1
  m_ReceiveGI: 1
  m_PreserveUVs: 0
  m_IgnoreNormalsForChartDetection: 0
  m_ImportantGI: 0
  m_StitchLightmapSeams: 1
  m_SelectedEditorRenderState: 3
  m_MinimumChartSize: 4
  m_AutoUVMaxDistance: 0.5
  m_AutoUVMaxAngle: 89
  m_LightmapParameters: {fileID: 0}
  m_SortingLayerID: 0
  m_SortingLayer: 0
  m_SortingOrder: 0
  m_AdditionalVertexStreams: {fileID: 0}
--- !u!1001 &500079958845042769
PrefabInstance:
  m_ObjectHideFlags: 0
  serializedVersion: 2
  m_Modification:
    serializedVersion: 3
    m_TransformParent: {fileID: 500079958391834577}
    m_Modifications:
    - target: {fileID: 1425287175, guid: 8862d358c30a651ce9753bdd427a3c2d, type: 3}
      propertyPath: m_StaticEditorFlags
      value: 1
      objectReference: {fileID: 0}
    - target: {fileID: 1425287178, guid: 8862d358c30a651ce9753bdd427a3c2d, type: 3}
      propertyPath: m_Range
      value: 5
      objectReference: {fileID: 0}
    - target: {fileID: 1425287178, guid: 8862d358c30a651ce9753bdd427a3c2d, type: 3}
      propertyPath: m_Enabled
      value: 1
      objectReference: {fileID: 0}
    - target: {fileID: 1425287178, guid: 8862d358c30a651ce9753bdd427a3c2d, type: 3}
      propertyPath: m_Lightmapping
      value: 2
      objectReference: {fileID: 0}
    - target: {fileID: 1425287178, guid: 8862d358c30a651ce9753bdd427a3c2d, type: 3}
      propertyPath: m_BoundingSphereOverride.w
      value: 7
      objectReference: {fileID: 0}
    - target: {fileID: 1425287178, guid: 8862d358c30a651ce9753bdd427a3c2d, type: 3}
      propertyPath: m_BoundingSphereOverride.x
      value: 0
      objectReference: {fileID: 0}
    - target: {fileID: 1425287178, guid: 8862d358c30a651ce9753bdd427a3c2d, type: 3}
      propertyPath: m_BoundingSphereOverride.y
      value: 1.5e-44
      objectReference: {fileID: 0}
    - target: {fileID: 1425287178, guid: 8862d358c30a651ce9753bdd427a3c2d, type: 3}
      propertyPath: m_BoundingSphereOverride.z
      value: 0
      objectReference: {fileID: 0}
    - target: {fileID: 1950409399807485355, guid: 8862d358c30a651ce9753bdd427a3c2d,
        type: 3}
      propertyPath: m_RootOrder
      value: 0
      objectReference: {fileID: 0}
    - target: {fileID: 1950409399807485355, guid: 8862d358c30a651ce9753bdd427a3c2d,
        type: 3}
      propertyPath: m_LocalScale.x
      value: 0.15
      objectReference: {fileID: 0}
    - target: {fileID: 1950409399807485355, guid: 8862d358c30a651ce9753bdd427a3c2d,
        type: 3}
      propertyPath: m_LocalScale.y
      value: 0.15
      objectReference: {fileID: 0}
    - target: {fileID: 1950409399807485355, guid: 8862d358c30a651ce9753bdd427a3c2d,
        type: 3}
      propertyPath: m_LocalScale.z
      value: 0.15
      objectReference: {fileID: 0}
    - target: {fileID: 1950409399807485355, guid: 8862d358c30a651ce9753bdd427a3c2d,
        type: 3}
      propertyPath: m_LocalPosition.x
      value: -0.049
      objectReference: {fileID: 0}
    - target: {fileID: 1950409399807485355, guid: 8862d358c30a651ce9753bdd427a3c2d,
        type: 3}
      propertyPath: m_LocalPosition.y
      value: 0.1562
      objectReference: {fileID: 0}
    - target: {fileID: 1950409399807485355, guid: 8862d358c30a651ce9753bdd427a3c2d,
        type: 3}
      propertyPath: m_LocalPosition.z
      value: 0.0009
      objectReference: {fileID: 0}
    - target: {fileID: 1950409399807485355, guid: 8862d358c30a651ce9753bdd427a3c2d,
        type: 3}
      propertyPath: m_LocalRotation.w
      value: 1
      objectReference: {fileID: 0}
    - target: {fileID: 1950409399807485355, guid: 8862d358c30a651ce9753bdd427a3c2d,
        type: 3}
      propertyPath: m_LocalRotation.x
      value: 0
      objectReference: {fileID: 0}
    - target: {fileID: 1950409399807485355, guid: 8862d358c30a651ce9753bdd427a3c2d,
        type: 3}
      propertyPath: m_LocalRotation.y
      value: 0
      objectReference: {fileID: 0}
    - target: {fileID: 1950409399807485355, guid: 8862d358c30a651ce9753bdd427a3c2d,
        type: 3}
      propertyPath: m_LocalRotation.z
      value: 0
      objectReference: {fileID: 0}
    - target: {fileID: 1950409399807485355, guid: 8862d358c30a651ce9753bdd427a3c2d,
        type: 3}
      propertyPath: m_LocalEulerAnglesHint.x
      value: 0
      objectReference: {fileID: 0}
    - target: {fileID: 1950409399807485355, guid: 8862d358c30a651ce9753bdd427a3c2d,
        type: 3}
      propertyPath: m_LocalEulerAnglesHint.y
      value: 0
      objectReference: {fileID: 0}
    - target: {fileID: 1950409399807485355, guid: 8862d358c30a651ce9753bdd427a3c2d,
        type: 3}
      propertyPath: m_LocalEulerAnglesHint.z
      value: 0
      objectReference: {fileID: 0}
    - target: {fileID: 2087866373358576392, guid: 8862d358c30a651ce9753bdd427a3c2d,
        type: 3}
      propertyPath: m_StaticEditorFlags
      value: 1
      objectReference: {fileID: 0}
    - target: {fileID: 2087866373829336469, guid: 8862d358c30a651ce9753bdd427a3c2d,
        type: 3}
      propertyPath: m_StaticEditorFlags
      value: 1
      objectReference: {fileID: 0}
    - target: {fileID: 6814178334655112076, guid: 8862d358c30a651ce9753bdd427a3c2d,
        type: 3}
      propertyPath: m_Name
      value: TorchFlame
      objectReference: {fileID: 0}
    - target: {fileID: 6814178334655112076, guid: 8862d358c30a651ce9753bdd427a3c2d,
        type: 3}
      propertyPath: m_StaticEditorFlags
      value: 1
      objectReference: {fileID: 0}
    m_RemovedComponents: []
    m_RemovedGameObjects: []
    m_AddedGameObjects: []
    m_AddedComponents: []
  m_SourcePrefab: {fileID: 100100000, guid: 8862d358c30a651ce9753bdd427a3c2d, type: 3}
--- !u!4 &2153172595256301050 stripped
Transform:
  m_CorrespondingSourceObject: {fileID: 1950409399807485355, guid: 8862d358c30a651ce9753bdd427a3c2d,
    type: 3}
  m_PrefabInstance: {fileID: 500079958845042769}
  m_PrefabAsset: {fileID: 0}
