%YAML 1.1
%TAG !u! tag:unity3d.com,2011:
--- !u!21 &2100000
Material:
  serializedVersion: 8
  m_ObjectHideFlags: 0
  m_CorrespondingSourceObject: {fileID: 0}
  m_PrefabInstance: {fileID: 0}
  m_PrefabAsset: {fileID: 0}
  m_Name: MIS_Props_00
  m_Shader: {fileID: -6465566751694194690, guid: ccd73b05e08f1084c951e84f7583b6b0,
    type: 3}
  m_Parent: {fileID: 0}
  m_ModifiedSerializedProperties: 0
  m_ValidKeywords: []
  m_InvalidKeywords:
  - _METALLICSPECGLOSSMAP
  - _NORMALMAP
  - _OCCLUSIONMAP
  - _PARALLAXMAP
  m_LightmapFlags: 4
  m_EnableInstancingVariants: 0
  m_DoubleSidedGI: 0
  m_CustomRenderQueue: -1
  stringTagMap: {}
  disabledShaderPasses: []
  m_LockedProperties: 
  m_SavedProperties:
    serializedVersion: 3
    m_TexEnvs:
    - Texture2D_1:
        m_Texture: {fileID: 2800000, guid: e5e3e8d64f91dcf4ca0054b9d2c86b3b, type: 3}
        m_Scale: {x: 1, y: 1}
        m_Offset: {x: 0, y: 0}
    - Texture2D_2:
        m_Texture: {fileID: 2800000, guid: f675826a8c19ece42a41545edcb5cd37, type: 3}
        m_Scale: {x: 1, y: 1}
        m_Offset: {x: 0, y: 0}
    - Texture2D_278684b2fd824c5cadf28cf87750e25d:
        m_Texture: {fileID: 0}
        m_Scale: {x: 1, y: 1}
        m_Offset: {x: 0, y: 0}
    - Texture2D_3:
        m_Texture: {fileID: 2800000, guid: 95236a393b0dea843897a062ad00b19b, type: 3}
        m_Scale: {x: 1, y: 1}
        m_Offset: {x: 0, y: 0}
    - Texture2D_4:
        m_Texture: {fileID: 2800000, guid: 4c0bb633b8caca34da5866f787555b84, type: 3}
        m_Scale: {x: 1, y: 1}
        m_Offset: {x: 0, y: 0}
    - Texture2D_4b467e3897554b06ad2296f0b0ec2871:
        m_Texture: {fileID: 2800000, guid: d44e69c9cfd82314da3541875ebb4fb0, type: 3}
        m_Scale: {x: 1, y: 1}
        m_Offset: {x: 0, y: 0}
    - Texture2D_59890f9fba1d4b508327bf584830c0ed:
        m_Texture: {fileID: 0}
        m_Scale: {x: 1, y: 1}
        m_Offset: {x: 0, y: 0}
    - Texture2D_a8e62d891b5644dca9066d80afba6d10:
        m_Texture: {fileID: 2800000, guid: 972bc9c8cabb7ed45b1fb4e2f3c918d1, type: 3}
        m_Scale: {x: 1, y: 1}
        m_Offset: {x: 0, y: 0}
    - unity_Lightmaps:
        m_Texture: {fileID: 0}
        m_Scale: {x: 1, y: 1}
        m_Offset: {x: 0, y: 0}
    - unity_LightmapsInd:
        m_Texture: {fileID: 0}
        m_Scale: {x: 1, y: 1}
        m_Offset: {x: 0, y: 0}
    - unity_ShadowMasks:
        m_Texture: {fileID: 0}
        m_Scale: {x: 1, y: 1}
        m_Offset: {x: 0, y: 0}
    m_Ints: []
    m_Floats:
    - Vector1_0987acb83357472b874fb8e6f9edcbf0: 1
    - Vector1_2866a4af604a43b693faab592db426f7: 1
    - Vector1_48d015270ba147bf98d6ce4e824a5bcd: 2
    - Vector1_547b7ccac86044628536d06e01504324: 1
    - Vector1_56f67ae1ed1b4227887996b7d717822d: 0.25
    - Vector1_6fb8f6d569f247a9937d46067adef4d8: 0.5
    - Vector1_87cd48c7bb54414093b05f5ace8f532c: 1
    - _QueueControl: 0
    - _QueueOffset: 0
    m_Colors:
    - Color_5aa17c67db4c41ae8259c6e320eefa94: {r: 0.9716981, g: 0.90501934, b: 0.75627446,
        a: 0}
    - Color_70ee4382b74b4940b54dc64d335c6f40: {r: 1, g: 1, b: 1, a: 1}
  m_BuildTextureStacks: []
--- !u!114 &4684096972059938921
MonoBehaviour:
  m_ObjectHideFlags: 11
  m_CorrespondingSourceObject: {fileID: 0}
  m_PrefabInstance: {fileID: 0}
  m_PrefabAsset: {fileID: 0}
  m_GameObject: {fileID: 0}
  m_Enabled: 1
  m_EditorHideFlags: 0
  m_Script: {fileID: 11500000, guid: d0353a89b1f911e48b9e16bdc9f2e058, type: 3}
  m_Name: 
  m_EditorClassIdentifier: 
  version: 6
